﻿id,name,mvs_id,vs_id,mvs_value,vs_value
1,MVS Dresden,"",01,0,0
2,MVS Leipzig,"",04,0,0
3,MVS Gera,"",09,0,1
4,MVS Berlin,"",12,0,1
5,MVS Hamburg,"",21,0,0
6,MVS Lübeck,"",23,0,0
7,MVS Schleswig-Holstein,"",24,0,0
8,MVS Ostfriesland,"",26,0,0
9,MVS Bremen,"",28,0,1
10,MVS Hannover,"",30,0,1
11,MVS Bielefeld,"",32,0,1
12,MVS Kassel,"",37,0,1
13,MVS Braunschweig,"",38,0,0
14,MVS Magdeburg,"",39,0,0
15,MVS Essen,"",45,0,1
16,MVS Osnabr,"",49,0,0
17,MVS Köln,"",50,0,1
18,MVS Koblenz,"",56,0,1
19,MVS Siegen,"",57,0,1
20,MVS Hagen,"",58,0,1
21,MVS Frankfurt,"",60,0,1
22,MVS Darmstadt,"",63,0,1
23,MVS Saarland,"",66,0,1
24,MVS Mannheim,"",68,0,1
25,MVS Stuttgart,"",70,0,1
26,MVS Rottweil,"",72,0,1
27,MVS Heilbronn,"",73,0,1
28,MVS Offenburg,"",78,0,1
29,MVS München,"",82,0,1
30,MVS Memmingen,"",87,0,1
31,MVS Langenau,"",89,0,1
32,MVS Nürnberg,"",90,0,1
33,MVS Regensburg,"",93,0,1
34,MVS Schweinfurt,"",97,0,1
35,MVS Weimar,"",98,0,0
36,MVS Dresden,01,0101,0,0
37,MVS Dresden,01,0103,0,1
38,MVS Dresden,01,0111,0,0
39,MVS Dresden,01,0121,0,0
40,MVS Dresden,01,0122,0,0
41,MVS Dresden,01,0191,0,0
42,MVS Dresden,01,0192,0,0
43,MVS Dresden,01,0261,0,0
44,MVS Dresden,01,0263,0,0
45,MVS Dresden,01,0271,0,0
46,MVS Dresden,01,0291,0,0
47,MVS Dresden,01,0301,0,0
48,MVS Dresden,01,0302,0,0
49,MVS Dresden,01,0311,0,0
50,MVS Dresden,01,0321,0,0
51,MVS Leipzig,04,0411,0,0
52,MVS Leipzig,04,0421,0,0
53,MVS Leipzig,04,0422,0,0
54,MVS Leipzig,04,0423,0,0
55,MVS Leipzig,04,0451,0,0
56,MVS Leipzig,04,0461,0,0
57,MVS Leipzig,04,0466,0,0
58,MVS Leipzig,04,0601,0,0
59,MVS Leipzig,04,0605,0,0
60,MVS Leipzig,04,0611,0,0
61,MVS Leipzig,04,0641,0,0
62,MVS Leipzig,04,0642,0,0
63,MVS Leipzig,04,0644,0,0
64,MVS Leipzig,04,0648,0,0
65,MVS Leipzig,04,0656,0,0
66,MVS Leipzig,04,0661,0,0
67,MVS Leipzig,04,0662,0,0
68,MVS Leipzig,04,0663,0,0
69,MVS Leipzig,04,0681,0,0
70,MVS Leipzig,04,0682,0,0
71,MVS Leipzig,04,0691,0,0
72,MVS Gera,09,0741,0,0
73,MVS Gera,09,0751,0,0
74,MVS Gera,09,0754,0,0
75,MVS Gera,09,0762,0,0
76,MVS Gera,09,0764,0,0
77,MVS Gera,09,0791,0,0
78,MVS Gera,09,0801,0,1
79,MVS Gera,09,0830,0,0
80,MVS Gera,09,0831,0,0
81,MVS Gera,09,0851,0,0
82,MVS Gera,09,0911,0,0
83,MVS Gera,09,0931,0,0
84,MVS Gera,09,0951,0,0
85,MVS Gera,09,0954,0,0
86,MVS Berlin,12,1031,0,0
87,MVS Berlin,12,1032,0,0
88,MVS Berlin,12,1041,0,0
89,MVS Berlin,12,1055,0,0
90,MVS Berlin,12,1056,0,0
91,MVS Berlin,12,1057,0,0
92,MVS Berlin,12,1071,0,0
93,MVS Berlin,12,1211,0,0
94,MVS Berlin,12,1231,0,1
95,MVS Berlin,12,1232,0,0
96,MVS Berlin,12,1251,0,0
97,MVS Berlin,12,1261,0,0
98,MVS Berlin,12,1301,0,0
99,MVS Berlin,12,1331,0,0
100,MVS Berlin,12,1341,0,0
101,MVS Berlin,12,1351,0,0
102,MVS Berlin,12,1405,0,0
103,MVS Berlin,12,1451,0,0
104,MVS Berlin,12,1471,0,1
105,MVS Berlin,12,1472,0,0
106,MVS Berlin,12,1491,0,0
107,MVS Berlin,12,1521,0,0
108,MVS Berlin,12,1522,0,0
109,MVS Berlin,12,1523,0,0
110,MVS Berlin,12,1624,0,0
111,MVS Berlin,12,1631,0,0
112,MVS Berlin,12,1650,0,0
113,MVS Berlin,12,1651,0,0
114,MVS Berlin,12,1652,0,0
120,MVS Ostsee,17,1812,0,0
121,MVS Ostsee,17,1841,0,0
117,MVS Ostsee,17,1741,0,0
119,MVS Ostsee,17,1811,0,0
118,MVS L,23,1800,0,0
116,MVS Ostsee,17,1721,0,0
115,MVS Ostsee,17,1701,0,0
122,MVS Ostsee,17,1852,0,0
123,MVS Lübeck,23,1902,0,0
124,MVS Lübeck,23,1931,0,0
125,MVS Hamburg ,21,2000,0,0
126,MVS Hamburg ,21,2001,0,0
127,MVS Hamburg ,21,2101,0,0
128,MVS Hamburg ,21,2103,0,0
129,MVS Hamburg ,21,2121,0,0
130,MVS Hamburg ,21,2131,0,0
131,MVS Hamburg ,21,2141,0,0
132,MVS Hamburg ,21,2142,0,0
133,MVS Hamburg ,21,2151,0,0
134,MVS Hamburg ,21,2161,0,0
135,MVS Hamburg ,21,2163,0,0
136,MVS Hamburg ,21,2171,0,0
137,MVS Hamburg ,21,2211,0,0
138,MVS Hamburg ,21,2241,0,0
139,MVS Hamburg ,21,2281,0,0
140,MVS Hamburg ,21,2292,0,0
141,MVS Lübeck,23,2351,0,0
142,MVS Lübeck,23,2372,0,0
143,MVS Lübeck,23,2373,0,0
144,MVS Lübeck,23,2391,0,0
145,"MVS Schleswig-Holstein 	",24,2411,0,0
146,"MVS Schleswig-Holstein 	",24,2412,0,0
147,"MVS Schleswig-Holstein 	",24,2451,0,0
148,"MVS Schleswig-Holstein 	",24,2456,0,0
149,"MVS Schleswig-Holstein 	",24,2471,0,0
150,"MVS Schleswig-Holstein 	",24,2483,0,0
151,"MVS Schleswig-Holstein 	",24,2491,0,0
152,MVS Schleswig-Holstein,24,2551,0,0
153,"MVS Schleswig-Holstein 	",24,2552,0,0
154,"MVS Schleswig-Holstein 	",24,2574,0,0
155,"MVS Schleswig-Holstein 	",24,2581,0,0
156,MVS Ostfriesland,26,2611,0,0
157,MVS Ostfriesland,26,2616,0,0
158,MVS Ostfriesland,26,2638,0,0
159,MVS Ostfriesland,26,2641,0,0
160,MVS Ostfriesland,26,2647,0,0
161,MVS Ostfriesland,26,2650,0,0
162,MVS Ostfriesland,26,2660,0,0
163,MVS Ostfriesland,26,2665,0,0
164,MVS Ostfriesland,26,2672,0,0
165,MVS Ostfriesland,26,2678,0,0
166,MVS Ostfriesland,26,2687,0,0
167,MVS Ostfriesland,26,2695,0,0
168,MVS Bremen,28,2728,0,0
169,MVS Bremen,28,2730,0,0
170,MVS Bremen,28,2740,0,1
171,MVS Bremen,28,2756,0,1
173,MVS Bremen,28,2770,0,1
174,MVS Bremen,28,2771,0,1
175,MVS Bremen,28,2773,0,1
176,MVS Bremen,28,2819,0,0
177,MVS Bremen,28,2820,0,0
178,MVS Bremen,28,2821,0,1
179,MVS Bremen,28,2822,0,1
180,MVS Bremen,28,2824,0,0
181,MVS Bremen,28,2825,0,0
182,MVS Bremen,28,2827,0,0
183,MVS Bremen,28,2830,0,0
184,MVS Bremen,28,2832,0,0
185,MVS Bremen,28,2833,0,0
186,MVS Bremen,28,2835,0,0
187,MVS Bremen,28,2871,0,1
188,MVS Bremen,28,2877,0,1
189,MVS Bremen,28,2885,0,0
190,MVS Bremen,28,2890,0,0
191,MVS Hamburg ,21,2921,0,0
192,MVS Hamburg ,21,2931,0,0
193,MVS Magdeburg,39,2941,0,0
194,MVS Hamburg ,21,2942,0,0
195,MVS Hamburg ,21,2943,0,0
196,MVS Hamburg ,21,2961,0,0
197,MVS Hannover,30,3016,0,0
198,MVS Hannover,30,3041,0,0
199,MVS Hannover,30,3051,0,0
200,MVS Hannover,30,3062,0,0
201,MVS Hannover,30,3081,0,0
202,MVS Hannover,30,3082,0,0
203,MVS Hannover,30,3088,0,1
204,MVS Hannover,30,3091,0,0
205,MVS Hannover,30,3101,0,0
206,MVS Hannover,30,3111,0,0
207,MVS Hannover,30,3112,0,0
208,MVS Hannover,30,3122,0,1
209,MVS Hannover,30,3131,0,1
210,MVS Hannover,30,3151,0,0
211,MVS Hannover,30,3152,0,0
212,MVS Hannover,30,3161,0,0
213,MVS Hannover,30,3181,0,0
214,MVS Hannover,30,3182,0,0
215,MVS Bielefeld,32,3211,0,0
216,MVS Bielefeld,32,3221,0,1
217,MVS Bielefeld,32,3225,0,1
218,MVS Bielefeld,32,3242,0,0
219,MVS Bielefeld,32,3245,0,0
220,MVS Bielefeld,32,3275,0,0
221,MVS Bielefeld,32,3280,0,0
222,MVS Bielefeld,32,3311,0,0
223,MVS Bielefeld,32,3312,0,0
224,MVS Bielefeld,32,3333,0,0
225,MVS Bielefeld,32,3360,0,0
226,MVS Bielefeld,32,3379,0,1
227,MVS Kassel,37,3411,0,1
228,MVS Kassel,37,3412,0,1
229,MVS Kassel,37,3431,0,1
230,MVS Kassel,37,3441,0,1
231,MVS Kassel,37,3442,0,0
232,MVS Kassel,37,3443,0,0
233,MVS Kassel,37,3451,0,1
234,MVS Kassel,37,3461,0,1
235,MVS Siegen,57,3501,0,0
236,MVS Siegen,57,3511,0,0
237,MVS Siegen,57,3532,0,0
238,MVS Siegen,57,3542,0,0
239,MVS Siegen,57,3571,0,1
240,MVS Siegen,57,3572,0,1
241,MVS Siegen,57,3599,0,0
242,MVS Kassel,37,3601,0,0
243,MVS Kassel,37,3611,0,1
244,MVS Kassel,37,3621,0,1
245,MVS Kassel,37,3631,0,1
246,MVS Kassel,37,3640,0,0
247,MVS Kassel,37,3711,0,1
248,MVS Kassel,37,3712,0,1
249,MVS Kassel,37,3721,0,1
250,MVS Kassel,37,3733,0,0
251,MVS Kassel,37,3741,0,0
252,MVS Kassel,37,3761,0,1
253,MVS Kassel,37,3762,0,0
254,MVS Kassel,37,3763,0,0
255,MVS Braunschweig,38,3810,0,0
256,MVS Braunschweig,38,3811,0,0
257,MVS Braunschweig,38,3815,0,0
258,MVS Braunschweig,38,3821,0,0
259,MVS Braunschweig,38,3831,0,0
260,MVS Braunschweig,38,3832,0,0
261,MVS Braunschweig,38,3833,0,0
262,MVS Magdeburg,39,3841,0,0
263,MVS Braunschweig,38,3842,0,0
264,MVS Braunschweig,38,3851,0,0
265,MVS Braunschweig,38,3861,0,0
266,MVS Braunschweig,38,3872,0,0
267,MVS Magdeburg,39,3881,0,0
268,MVS Magdeburg,39,3882,0,0
269,MVS Magdeburg,39,3885,0,0
270,MVS Magdeburg,39,3889,0,0
271,MVS Magdeburg,39,3911,0,0
272,MVS Magdeburg,39,3912,0,0
273,MVS Magdeburg,39,3921,0,0
274,MVS Magdeburg,39,3922,0,0
275,MVS Magdeburg,39,3923,0,0
276,MVS Magdeburg,39,3924,0,0
277,MVS Magdeburg,39,3928,0,0
278,MVS Magdeburg,39,3931,0,0
279,MVS Magdeburg,39,3932,0,0
280,MVS Magdeburg,39,3933,0,0
281,MVS Magdeburg,39,3934,0,0
282,MVS Magdeburg,39,3935,0,0
283,MVS Magdeburg,39,3941,0,0
284,MVS Magdeburg,39,3942,0,0
285,MVS Magdeburg,39,3951,0,0
286,MVS Magdeburg,39,3952,0,0
287,MVS Magdeburg,39,3957,0,0
288,MVS Magdeburg,39,3962,0,0
289,MVS Köln,50,4021,0,1
290,MVS Köln,50,4051,0,1
291,MVS Köln,50,4071,0,1
292,MVS Köln,50,4081,0,1
293,MVS Köln,50,4082,0,1
294,MVS Köln,50,4141,0,1
295,MVS Köln,50,4151,0,1
296,MVS Köln,50,4171,0,1
297,MVS Köln,50,4172,0,1
298,MVS Köln,50,4173,0,1
299,MVS Köln,50,4181,0,1
300,MVS Köln,50,4182,0,1
301,MVS Köln,50,4183,0,1
302,MVS Köln,50,4221,0,1
303,MVS Köln,50,4251,0,1
304,MVS Köln,50,4262,0,1
305,MVS Köln,50,4280,0,1
306,MVS Köln,50,4281,0,1
307,MVS Köln,50,4282,0,1
308,MVS Essen,45,4431,0,0
309,MVS Essen,45,4432,0,0
310,MVS Essen,45,4433,0,0
311,MVS Essen,45,4437,0,0
312,MVS Essen,45,4462,0,0
313,MVS Essen,45,4481,0,0
314,MVS Essen,45,4482,0,0
315,MVS Essen,45,4491,0,0
316,MVS Essen,45,4495,0,0
317,MVS Essen,45,4521,0,0
318,MVS Essen,45,4522,0,0
319,MVS Essen,45,4531,0,0
320,MVS Essen,45,4532,0,0
321,MVS Essen,45,4541,0,0
322,MVS Essen,45,4551,0,0
323,MVS Essen,45,4561,0,0
324,MVS Essen,45,4565,0,0
325,MVS Essen,45,4571,0,0
326,MVS Essen,45,4581,0,0
327,MVS Essen,45,4582,0,0
328,MVS Essen,45,4583,0,0
329,MVS Essen,45,4611,0,0
330,MVS Essen,45,4621,0,1
331,MVS Essen,45,4622,0,1
332,MVS Essen,45,4631,0,0
333,MVS Essen,45,4641,0,0
334,MVS Essen,45,4651,0,0
335,MVS Köln,50,4721,0,0
336,MVS Köln,50,4741,0,0
337,MVS Köln,50,4751,0,1
338,MVS Köln,50,4752,0,1
339,MVS Köln,50,4761,0,1
340,MVS Köln,50,4781,0,0
341,MVS Köln,50,4782,0,0
342,MVS Köln,50,4799,0,0
343,MVS Osnabr,49,4811,0,0
344,MVS Osnabr,49,4812,0,0
345,MVS Osnabr,49,4821,0,0
346,MVS Osnabr,49,4822,0,0
347,MVS Osnabr,49,4842,0,0
348,MVS Osnabr,49,4851,0,0
349,MVS Osnabr,49,4868,0,0
350,MVS Osnabr,49,4901,0,0
351,MVS Osnabr,49,4911,0,0
352,MVS Osnabr,49,4918,0,0
353,MVS Osnabr,49,4941,0,0
354,MVS Osnabr,49,4981,0,0
355,MVS Osnabr,49,4984,0,0
356,MVS Köln,50,5000,0,0
357,MVS Köln,50,5011,0,0
358,MVS Köln,50,5013,0,0
359,MVS Köln,50,5015,0,0
360,MVS Siegen,57,5101,0,0
361,MVS Siegen,57,5111,0,0
362,MVS Siegen,57,5131,0,0
363,MVS Siegen,57,5161,0,0
364,MVS Köln,50,5201,0,1
365,MVS Köln,50,5211,0,1
366,MVS Köln,50,5212,0,0
367,MVS Köln,50,5231,0,0
368,MVS Köln,50,5297,0,0
369,MVS Köln,50,5298,0,0
370,MVS Köln,50,5299,0,0
371,MVS Köln,50,5311,0,0
372,MVS Köln,50,5321,0,0
373,MVS Köln,50,5331,0,0
374,MVS Köln,50,5341,0,1
375,MVS Köln,50,5351,0,0
376,MVS Köln,50,5381,0,0
377,MVS Köln,50,5391,0,0
378,MVS Koblenz,56,5420,0,1
379,MVS Koblenz,56,5421,0,1
380,MVS Koblenz,56,5431,0,1
381,MVS Koblenz,56,5451,0,1
382,MVS Koblenz,56,5461,0,0
383,MVS Koblenz,56,5497,0,0
384,MVS Koblenz,56,5498,0,0
385,MVS Koblenz,56,5499,0,0
386,MVS Koblenz,56,5510,0,1
387,MVS Koblenz,56,5511,0,1
388,MVS Koblenz,56,5521,0,1
389,MVS Koblenz,56,5551,0,1
390,MVS Koblenz,56,5571,0,0
391,MVS Koblenz,56,5599,0,0
392,MVS Koblenz,56,5601,0,0
393,MVS Koblenz,56,5631,0,0
394,MVS Koblenz,56,5641,0,1
395,MVS Koblenz,56,5651,0,0
396,MVS Koblenz,56,5661,0,0
397,MVS Koblenz,56,5671,0,0
398,MVS Koblenz,56,5681,0,0
399,MVS Koblenz,57,5721,0,1
400,MVS Siegen,57,5731,0,0
401,MVS Siegen,57,5741,0,0
402,MVS Siegen,57,5751,0,0
403,MVS Siegen,57,5761,0,0
404,MVS Hagen,58,5801,0,0
405,MVS Hagen,58,5851,0,1
406,MVS Hagen,58,5852,0,1
407,MVS Hagen,58,5861,0,1
408,MVS Hagen,58,5901,0,1
409,MVS Hagen,58,5902,0,1
410,MVS Hagen,58,5921,0,1
411,MVS Hagen,58,5922,0,1
412,MVS Hagen,58,5941,0,0
413,MVS Hagen,58,5951,0,0
414,MVS Hagen,58,5952,0,0
415,MVS Hagen,58,5991,0,1
416,MVS Frankfurt,60,6031,0,0
417,MVS Frankfurt,60,6041,0,0
418,MVS Frankfurt,60,6111,0,0
419,MVS Frankfurt,60,6113,0,0
420,MVS Frankfurt,60,6116,0,0
421,MVS Frankfurt,60,6122,0,0
422,MVS Darmstadt,63,6301,0,1
423,MVS Darmstadt,63,6313,0,0
424,MVS Darmstadt,63,6314,0,0
425,MVS Darmstadt,63,6316,0,0
426,MVS Darmstadt,63,6321,0,0
427,MVS Darmstadt,63,6322,0,0
428,MVS Darmstadt,63,6345,0,0
429,MVS Darmstadt,63,6347,0,0
430,MVS Darmstadt,63,6351,0,0
431,MVS Darmstadt,63,6361,0,0
432,MVS Darmstadt,63,6371,0,0
433,MVS Darmstadt,63,6374,0,0
434,MVS Darmstadt,63,6375,0,0
435,MVS Darmstadt,63,6376,0,0
436,MVS Darmstadt,63,6391,0,0
437,MVS Darmstadt,63,6421,0,0
438,MVS Darmstadt,63,6422,0,0
439,MVS Darmstadt,63,6423,0,0
440,MVS Darmstadt,63,6424,0,0
441,MVS Darmstadt,63,6425,0,0
442,MVS Darmstadt,63,6431,0,0
443,MVS Darmstadt,63,6434,0,0
444,MVS Darmstadt,63,6435,0,0
445,MVS Darmstadt,63,6451,0,0
446,MVS Darmstadt,63,6461,0,0
447,MVS Darmstadt,63,6462,0,0
448,MVS Darmstadt,63,6471,0,0
449,MVS Frankfurt,60,6511,0,1
450,MVS Frankfurt,60,6520,0,1
451,MVS Frankfurt,60,6531,0,1
452,MVS Frankfurt,60,6541,0,1
453,MVS Frankfurt,60,6551,0,1
454,MVS Frankfurt,60,6558,0,1
455,MVS Frankfurt,60,6571,0,0
456,MVS Frankfurt,60,6572,0,0
457,MVS Saarland ,66,6611,0,0
458,MVS Saarland ,66,6612,0,0
459,MVS Saarland ,66,6641,0,1
460,MVS Saarland ,66,6651,0,1
461,MVS Saarland ,66,6671,0,0
462,MVS Saarland ,66,6672,0,0
463,MVS Saarland ,66,6681,0,1
464,MVS Saarland ,66,6682,0,0
465,MVS Saarland ,66,6691,0,1
466,MVS Saarland ,66,6699,0,0
467,MVS Mannheim,68,6701,0,0
468,MVS Mannheim,68,6702,0,0
469,MVS Mannheim,68,6721,0,0
470,MVS Mannheim,68,6722,0,0
471,MVS Mannheim,68,6731,0,0
472,MVS Mannheim,68,6732,0,0
473,MVS Mannheim,68,6751,0,0
474,MVS Mannheim,68,6752,0,0
475,MVS Mannheim,68,6761,0,0
476,MVS Mannheim,68,6762,0,0
477,MVS Mannheim,68,6781,0,0
478,MVS Mannheim,68,6810,0,0
479,MVS Mannheim,68,6811,0,0
480,MVS Mannheim,68,6812,0,1
481,MVS Mannheim,68,6861,0,1
482,MVS Mannheim,68,6871,0,0
483,MVS Mannheim,68,6872,0,0
484,MVS Mannheim,68,6899,0,0
485,MVS Mannheim,68,6911,0,1
486,MVS Mannheim,68,6912,0,1
487,MVS Mannheim,68,6921,0,0
488,MVS Mannheim,68,6951,0,0
489,MVS Mannheim,68,6997,0,0
490,MVS Stuttgart,70,7001,0,0
491,MVS Stuttgart,70,7005,0,0
492,MVS Stuttgart,70,7011,0,0
493,MVS Stuttgart,70,7014,0,0
494,MVS Stuttgart,70,7019,0,0
495,MVS Stuttgart,70,7071,0,0
496,MVS Stuttgart,70,7082,0,0
497,MVS Stuttgart,70,7101,0,0
498,MVS Stuttgart,70,7121,0,0
499,MVS Stuttgart,70,7131,0,1
500,MVS Stuttgart,70,7142,0,0
501,MVS Stuttgart,70,7153,0,0
502,MVS Stuttgart,70,7161,0,1
503,MVS Stuttgart,70,7184,0,0
504,MVS Rottweil,72,7201,0,0
505,MVS Rottweil,72,7211,0,0
506,MVS Rottweil,72,7241,0,0
507,MVS Rottweil,72,7251,0,1
508,MVS Rottweil,72,7265,0,0
509,MVS Rottweil,72,7281,0,1
510,MVS Heilbronn,73,7301,0,1
511,MVS Heilbronn,73,7331,0,1
512,MVS Heilbronn,73,7341,0,1
513,MVS Heilbronn,73,7351,0,1
514,MVS Heilbronn,73,7371,0,0
515,MVS Heilbronn,73,7401,0,1
516,MVS Heilbronn,73,7411,0,1
517,MVS Heilbronn,73,7432,0,0
518,MVS Heilbronn,73,7440,0,1
519,MVS Heilbronn,73,7451,0,1
520,MVS Heilbronn,73,7490,0,0
521,MVS Stuttgart,70,7501,0,0
522,MVS Stuttgart,70,7502,0,1
523,MVS Stuttgart,70,7511,0,0
524,MVS Stuttgart,70,7520,0,1
525,MVS Offenburg,78,7611,0,0
526,MVS Offenburg,78,7641,0,0
527,MVS Offenburg,78,7642,0,0
528,MVS Offenburg,78,7661,0,0
529,MVS Offenburg,78,7662,0,0
530,MVS Offenburg,78,7671,0,0
531,MVS Offenburg,78,7681,0,0
532,MVS Offenburg,78,7771,0,0
533,MVS Offenburg,78,7781,0,0
534,MVS Offenburg,78,7782,0,0
535,MVS Rottweil,72,7801,0,1
536,MVS Rottweil,72,7822,0,1
537,MVS Rottweil,72,7851,0,1
538,MVS Offenburg,78,7911,0,1
539,MVS Offenburg,78,7931,0,0
540,MVS Offenburg,78,7961,0,1
541,MVS Offenburg,78,7976,0,1
542,MVS München,82,8000,0,0
543,MVS München,82,8061,0,0
544,MVS München,82,8062,0,0
545,MVS München,82,8121,0,0
546,MVS München,82,8151,0,1
547,MVS München,82,8161,0,0
548,MVS München,82,8171,0,0
549,MVS München,82,8201,0,0
550,MVS München,82,8211,0,0
551,MVS München,82,8215,0,0
552,MVS München,82,8241,0,0
553,MVS München,82,8301,0,0
554,MVS München,82,8331,0,0
555,MVS München,82,8332,0,1
556,MVS München,82,8371,0,0
557,MVS München,82,8411,0,1
558,MVS München,82,8412,0,1
559,MVS München,82,8451,0,0
560,MVS München,82,8501,0,0
561,MVS München,82,8521,0,0
562,MVS München,82,8531,0,0
563,MVS München,82,8551,0,1
564,MVS München,82,8571,0,0
565,MVS München,89,8612,0,1
566,MVS Langenau,89,8641,0,1
567,MVS Langenau,89,8661,0,1
568,MVS Langenau,89,8662,0,1
569,MVS Langenau,89,8681,0,1
570,MVS Memmingen,87,8741,0,1
571,MVS Memmingen,87,8771,0,1
572,MVS Memmingen,87,8801,0,1
573,MVS Memmingen,87,8811,0,1
574,MVS Memmingen,87,8831,0,1
575,MVS Memmingen,87,8841,0,1
576,MVS Langenau,89,8911,0,1
577,MVS Langenau,89,8921,0,1
578,MVS Langenau,89,8931,0,1
579,MVS Langenau,89,8951,0,1
580,MVS Langenau,89,8962,0,1
581,MVS Nürnberg,90,9041,0,1
582,MVS Nürnberg,90,9042,0,1
583,MVS Nürnberg,90,9051,0,0
584,MVS Nürnberg,90,9071,0,0
585,MVS Nürnberg,90,9101,0,1
586,MVS Nürnberg,90,9111,0,0
587,MVS Nürnberg,90,9131,0,1
588,MVS Nürnberg,90,9151,0,1
589,MVS Nürnberg,90,9171,0,0
590,MVS Regensburg,93,9222,0,1
591,MVS Regensburg,93,9231,0,1
592,MVS Regensburg,93,9262,0,1
593,MVS Regensburg,93,9301,0,1
594,MVS Regensburg,93,9311,0,1
595,MVS Regensburg,93,9331,0,1
596,MVS Regensburg,93,9401,0,0
597,MVS Regensburg,93,9402,0,0
598,MVS Regensburg,93,9421,0,0
599,MVS Regensburg,93,9431,0,0
600,MVS Nürnberg,90,9531,0,0
601,MVS Nürnberg,90,9541,0,0
602,MVS Nürnberg,90,9561,0,0
603,MVS Schweinfurt,97,9611,0,1
604,MVS Schweinfurt,97,9625,0,1
605,MVS Schweinfurt,97,9631,0,1
606,MVS Schweinfurt,97,9723,0,0
607,MVS Schweinfurt,97,9731,0,0
608,MVS Schweinfurt,97,9751,0,1
609,MVS Schweinfurt,97,9761,0,1
610,MVS Schweinfurt,97,9781,0,0
611,MVS Schweinfurt,97,9787,0,0
612,MVS Schweinfurt,97,9791,0,0
613,MVS Weimar,98,9851,0,0
614,MVS Weimar,98,9861,0,0
615,MVS Weimar,98,9873,0,0
616,MVS Weimar,98,9901,0,0
617,MVS Weimar,98,9902,0,0
618,MVS Weimar,98,9903,0,0
619,MVS Weimar,98,9904,0,0
620,MVS Weimar,98,9905,0,0
621,MVS Weimar,98,9906,0,0
622,MVS Weimar,98,9910,0,0
623,MVS Weimar,98,9931,0,0
624,MVS Weimar,98,9940,0,0
625,MVS Weimar,98,9942,0,0
626,MVS Weimar,98,9980,0,0
627,MVS Weimar,98,9981,0,0
628,MVS Weimar,98,9982,0,0
629,MVS Weimar,98,9997,0,0
630,MVS Ostsee,"",17,0,0
631,MVS Schweinfurt,97,9645,0,0
632,MVS Bremen,28,2764,0,0
